cpu/top.vcd
$date
	Thu May  1 11:25:52 2025
$end
$version
	Icarus Verilog
$end
$timescale
	1ps
$end
$scope module rv32im_top_tb $end
$var reg 1 ! clk $end
$var reg 1 " reset $end
$scope module dut $end
$var wire 32 # PCD [31:0] $end
$var wire 1 $ PCSrcE $end
$var wire 32 % WriteDataM [31:0] $end
$var wire 1 ! clk $end
$var wire 1 " reset $end
$var wire 1 & ZeroE $end
$var wire 1 ' StallF $end
$var wire 1 ( StallD $end
$var wire 32 ) SrcBE [31:0] $end
$var wire 32 * SrcAE [31:0] $end
$var wire 5 + Rs2E [4:0] $end
$var wire 5 , Rs2D [4:0] $end
$var wire 5 - Rs1E [4:0] $end
$var wire 5 . Rs1D [4:0] $end
$var wire 32 / ResultW [31:0] $end
$var wire 2 0 ResultSrcW [1:0] $end
$var wire 2 1 ResultSrcM [1:0] $end
$var wire 2 2 ResultSrcE [1:0] $end
$var wire 2 3 ResultSrcD [1:0] $end
$var wire 32 4 ResultM [31:0] $end
$var wire 1 5 RegWriteW $end
$var wire 1 6 RegWriteM $end
$var wire 1 7 RegWriteE $end
$var wire 1 8 RegWriteD $end
$var wire 32 9 ReadDataW [31:0] $end
$var wire 32 : ReadDataM [31:0] $end
$var wire 5 ; RdW [4:0] $end
$var wire 5 < RdM [4:0] $end
$var wire 5 = RdE [4:0] $end
$var wire 5 > RdD [4:0] $end
$var wire 32 ? RD2E [31:0] $end
$var wire 32 @ RD2D [31:0] $end
$var wire 32 A RD1E [31:0] $end
$var wire 32 B RD1D [31:0] $end
$var wire 32 C PCTargetE [31:0] $end
$var wire 32 D PCPlus4W [31:0] $end
$var wire 32 E PCPlus4M [31:0] $end
$var wire 32 F PCPlus4F [31:0] $end
$var wire 32 G PCPlus4E [31:0] $end
$var wire 32 H PCPlus4D [31:0] $end
$var wire 32 I PCNext [31:0] $end
$var wire 32 J PCF [31:0] $end
$var wire 32 K PCE [31:0] $end
$var wire 1 L MemWriteM $end
$var wire 1 M MemWriteE $end
$var wire 1 N MemWriteD $end
$var wire 1 O JumpE $end
$var wire 1 P JumpD $end
$var wire 32 Q InstrF [31:0] $end
$var wire 32 R InstrD [31:0] $end
$var wire 3 S ImmSrcD [2:0] $end
$var wire 32 T ImmExtE [31:0] $end
$var wire 32 U ImmExtD [31:0] $end
$var wire 2 V FwdBE [1:0] $end
$var wire 2 W FwdAE [1:0] $end
$var wire 1 X FlushE $end
$var wire 1 Y FlushD $end
$var wire 1 Z BranchE $end
$var wire 1 [ BranchD $end
$var wire 2 \ ALUSrcE_extended [1:0] $end
$var wire 1 ] ALUSrcE $end
$var wire 1 ^ ALUSrcD $end
$var wire 32 _ ALUResultW [31:0] $end
$var wire 32 ` ALUResultM [31:0] $end
$var wire 5 a ALUControlE [4:0] $end
$var wire 5 b ALUControlD [4:0] $end
$scope module alu $end
$var wire 32 c ALUResultM [31:0] $end
$var wire 1 & ZeroE $end
$var wire 32 d B [31:0] $end
$var wire 5 e ALUControlE [4:0] $end
$var wire 32 f A [31:0] $end
$var parameter 5 g OP_ADD $end
$var parameter 5 h OP_AND $end
$var parameter 5 i OP_DIV $end
$var parameter 5 j OP_DIVU $end
$var parameter 5 k OP_MUL $end
$var parameter 5 l OP_MULH $end
$var parameter 5 m OP_MULHSU $end
$var parameter 5 n OP_MULHU $end
$var parameter 5 o OP_NOP $end
$var parameter 5 p OP_OR $end
$var parameter 5 q OP_REM $end
$var parameter 5 r OP_REMU $end
$var parameter 5 s OP_SLL $end
$var parameter 5 t OP_SLT $end
$var parameter 5 u OP_SLTU $end
$var parameter 5 v OP_SRA $end
$var parameter 5 w OP_SRL $end
$var parameter 5 x OP_SUB $end
$var parameter 5 y OP_XOR $end
$var reg 32 z div_result [31:0] $end
$var reg 64 { mul_result [63:0] $end
$var reg 32 | rem_result [31:0] $end
$var reg 32 } result_reg [31:0] $end
$upscope $end
$scope module alu_srcB $end
$var wire 32 ~ d0 [31:0] $end
$var wire 2 !" s [1:0] $end
$var wire 32 "" y [31:0] $end
$var wire 32 #" d2 [31:0] $end
$var wire 32 $" d1 [31:0] $end
$upscope $end
$scope module branch_target_adder $end
$var wire 32 %" y [31:0] $end
$var wire 32 &" b [31:0] $end
$var wire 32 '" a [31:0] $end
$upscope $end
$scope module cu $end
$var wire 3 (" funct3 [2:0] $end
$var wire 1 )" funct7b0 $end
$var wire 1 *" funct7b5 $end
$var wire 7 +" opcode [6:0] $end
$var parameter 3 ," IMM_B $end
$var parameter 3 -" IMM_I $end
$var parameter 3 ." IMM_IU $end
$var parameter 3 /" IMM_I_SHFT $end
$var parameter 3 0" IMM_J $end
$var parameter 3 1" IMM_S $end
$var parameter 3 2" IMM_U $end
$var parameter 5 3" OP_ADD $end
$var parameter 5 4" OP_AND $end
$var parameter 5 5" OP_DIV $end
$var parameter 5 6" OP_DIVU $end
$var parameter 5 7" OP_MUL $end
$var parameter 5 8" OP_MULH $end
$var parameter 5 9" OP_MULHSU $end
$var parameter 5 :" OP_MULHU $end
$var parameter 5 ;" OP_NOP $end
$var parameter 5 <" OP_OR $end
$var parameter 5 =" OP_REM $end
$var parameter 5 >" OP_REMU $end
$var parameter 5 ?" OP_SLL $end
$var parameter 5 @" OP_SLT $end
$var parameter 5 A" OP_SLTU $end
$var parameter 5 B" OP_SRA $end
$var parameter 5 C" OP_SRL $end
$var parameter 5 D" OP_SUB $end
$var parameter 5 E" OP_XOR $end
$var parameter 2 F" RES_ALU $end
$var parameter 2 G" RES_IMM $end
$var parameter 2 H" RES_MEM $end
$var parameter 2 I" RES_PC4 $end
$var reg 5 J" ALUControl [4:0] $end
$var reg 1 ^ ALUSrc $end
$var reg 1 [ Branch $end
$var reg 3 K" ImmSrc [2:0] $end
$var reg 1 P Jump $end
$var reg 1 N MemWrite $end
$var reg 1 8 RegWrite $end
$var reg 2 L" ResultSrc [1:0] $end
$upscope $end
$scope module dmem $end
$var wire 32 M" RD [31:0] $end
$var wire 32 N" WD [31:0] $end
$var wire 1 ! clk $end
$var wire 1 L WE $end
$var wire 32 O" A [31:0] $end
$scope begin $ivl_for_loop1 $end
$var integer 32 P" i [31:0] $end
$upscope $end
$upscope $end
$scope module exmem $end
$var wire 32 Q" ALUResultE [31:0] $end
$var wire 32 R" WriteDataE [31:0] $end
$var wire 1 ! clk $end
$var wire 1 " reset $end
$var wire 2 S" ResultSrcE [1:0] $end
$var wire 1 7 RegWriteE $end
$var wire 5 T" RdE [4:0] $end
$var wire 32 U" PCPlus4E [31:0] $end
$var wire 1 M MemWriteE $end
$var reg 32 V" ALUResultM [31:0] $end
$var reg 1 L MemWriteM $end
$var reg 32 W" PCPlus4M [31:0] $end
$var reg 5 X" RdM [4:0] $end
$var reg 1 6 RegWriteM $end
$var reg 2 Y" ResultSrcM [1:0] $end
$var reg 32 Z" WriteDataM [31:0] $end
$upscope $end
$scope module fwdA $end
$var wire 32 [" d2 [31:0] $end
$var wire 32 \" y [31:0] $end
$var wire 2 ]" s [1:0] $end
$var wire 32 ^" d1 [31:0] $end
$var wire 32 _" d0 [31:0] $end
$upscope $end
$scope module fwdB $end
$var wire 32 `" d2 [31:0] $end
$var wire 32 a" y [31:0] $end
$var wire 2 b" s [1:0] $end
$var wire 32 c" d1 [31:0] $end
$var wire 32 d" d0 [31:0] $end
$upscope $end
$scope module hazard $end
$var wire 1 Y FlushD $end
$var wire 1 X FlushE $end
$var wire 1 $ PCSrcE $end
$var wire 5 e" RdM [4:0] $end
$var wire 1 6 RegWriteM $end
$var wire 1 f" ResultSrcb0E $end
$var wire 5 g" Rs1D [4:0] $end
$var wire 5 h" Rs2D [4:0] $end
$var wire 1 ( StallD $end
$var wire 1 ' StallF $end
$var wire 1 i" lwStall $end
$var wire 5 j" Rs2E [4:0] $end
$var wire 5 k" Rs1E [4:0] $end
$var wire 1 5 RegWriteW $end
$var wire 5 l" RdW [4:0] $end
$var wire 5 m" RdE [4:0] $end
$var wire 2 n" FwdBE [1:0] $end
$var wire 2 o" FwdAE [1:0] $end
$upscope $end
$scope module idex $end
$var wire 5 p" ALUControlD [4:0] $end
$var wire 1 ^ ALUSrcD $end
$var wire 1 [ BranchD $end
$var wire 1 P JumpD $end
$var wire 1 N MemWriteD $end
$var wire 32 q" PCD [31:0] $end
$var wire 5 r" RdD [4:0] $end
$var wire 1 8 RegWriteD $end
$var wire 2 s" ResultSrcD [1:0] $end
$var wire 5 t" Rs1D [4:0] $end
$var wire 5 u" Rs2D [4:0] $end
$var wire 1 ! clk $end
$var wire 1 X clr $end
$var wire 1 v" en $end
$var wire 1 " reset $end
$var wire 32 w" RD2D [31:0] $end
$var wire 32 x" RD1D [31:0] $end
$var wire 32 y" PCPlus4D [31:0] $end
$var wire 32 z" ImmExtD [31:0] $end
$var reg 5 {" ALUControlE [4:0] $end
$var reg 1 ] ALUSrcE $end
$var reg 1 Z BranchE $end
$var reg 32 |" ImmExtE [31:0] $end
$var reg 1 O JumpE $end
$var reg 1 M MemWriteE $end
$var reg 32 }" PCE [31:0] $end
$var reg 32 ~" PCPlus4E [31:0] $end
$var reg 32 !# RD1E [31:0] $end
$var reg 32 "# RD2E [31:0] $end
$var reg 5 ## RdE [4:0] $end
$var reg 1 7 RegWriteE $end
$var reg 2 $# ResultSrcE [1:0] $end
$var reg 5 %# Rs1E [4:0] $end
$var reg 5 &# Rs2E [4:0] $end
$upscope $end
$scope module ifid $end
$var wire 1 ! clk $end
$var wire 1 Y clr $end
$var wire 1 '# en $end
$var wire 1 " reset $end
$var wire 32 (# PCPlus4F [31:0] $end
$var wire 32 )# InstrF [31:0] $end
$var reg 32 *# InstrD [31:0] $end
$var reg 32 +# PCPlus4D [31:0] $end
$upscope $end
$scope module imem $end
$var wire 32 ,# RD [31:0] $end
$var wire 32 -# A [31:0] $end
$scope begin $ivl_for_loop0 $end
$var integer 32 .# i [31:0] $end
$upscope $end
$upscope $end
$scope module immext $end
$var wire 3 /# IMM_SEL [2:0] $end
$var wire 25 0# IN [24:0] $end
$var wire 32 1# U_OUT [31:0] $end
$var wire 32 2# S_OUT [31:0] $end
$var wire 32 3# J_OUT [31:0] $end
$var wire 32 4# I_UNSIGN_OUT [31:0] $end
$var wire 32 5# I_SIGN_OUT [31:0] $end
$var wire 32 6# I_SHIFT_OUT [31:0] $end
$var wire 32 7# B_OUT [31:0] $end
$var parameter 3 8# IMM_B $end
$var parameter 3 9# IMM_I $end
$var parameter 3 :# IMM_IU $end
$var parameter 3 ;# IMM_I_SHFT $end
$var parameter 3 <# IMM_J $end
$var parameter 3 =# IMM_S $end
$var parameter 3 ># IMM_U $end
$var reg 32 ?# OUT [31:0] $end
$upscope $end
$scope module memwb $end
$var wire 32 @# ALUResultM [31:0] $end
$var wire 32 A# PCPlus4M [31:0] $end
$var wire 5 B# RdM [4:0] $end
$var wire 32 C# ReadDataM [31:0] $end
$var wire 1 6 RegWriteM $end
$var wire 2 D# ResultSrcM [1:0] $end
$var wire 1 ! clk $end
$var wire 1 " reset $end
$var reg 32 E# ALUResultW [31:0] $end
$var reg 32 F# PCPlus4W [31:0] $end
$var reg 5 G# RdW [4:0] $end
$var reg 32 H# ReadDataW [31:0] $end
$var reg 1 5 RegWriteW $end
$var reg 2 I# ResultSrcW [1:0] $end
$upscope $end
$scope module pc_adder $end
$var wire 32 J# b [31:0] $end
$var wire 32 K# y [31:0] $end
$var wire 32 L# a [31:0] $end
$upscope $end
$scope module pc_mux $end
$var wire 32 M# d0 [31:0] $end
$var wire 32 N# d1 [31:0] $end
$var wire 1 $ s $end
$var wire 32 O# y [31:0] $end
$upscope $end
$scope module pcreg $end
$var wire 32 P# PCNext [31:0] $end
$var wire 1 ! clk $end
$var wire 1 Q# en $end
$var wire 1 " reset $end
$var reg 32 R# PC [31:0] $end
$upscope $end
$scope module rf $end
$var wire 5 S# A1 [4:0] $end
$var wire 5 T# A2 [4:0] $end
$var wire 5 U# A3 [4:0] $end
$var wire 1 5 WEn3 $end
$var wire 1 ! clk $end
$var wire 32 V# WD3 [31:0] $end
$var wire 32 W# RD2 [31:0] $end
$var wire 32 X# RD1 [31:0] $end
$upscope $end
$scope module wb_mux $end
$var wire 32 Y# d0 [31:0] $end
$var wire 32 Z# d1 [31:0] $end
$var wire 32 [# d2 [31:0] $end
$var wire 2 \# s [1:0] $end
$var wire 32 ]# y [31:0] $end
$upscope $end
$scope begin $ivl_for_loop2 $end
$var integer 32 ^# i [31:0] $end
$upscope $end
$upscope $end
$upscope $end
$enddefinitions $end
$comment Show the parameter values. $end
$dumpall
b0 >#
b11 =#
b1 <#
b101 ;#
b111 :#
b100 9#
b10 8#
b11 I"
b1 H"
b10 G"
b0 F"
b10000 E"
b10 D"
b10100 C"
b10110 B"
b1100 A"
b1000 @"
b100 ?"
b11101 >"
b11001 ="
b11000 <"
b11111 ;"
b1001 :"
b1101 9"
b101 8"
b1 7"
b10101 6"
b10001 5"
b11100 4"
b0 3"
b0 2"
b11 1"
b1 0"
b101 /"
b111 ."
b100 -"
b10 ,"
b10000 y
b10 x
b10100 w
b10110 v
b1100 u
b1000 t
b100 s
b11101 r
b11001 q
b11000 p
b11111 o
b1001 n
b1101 m
b101 l
b1 k
b10101 j
b10001 i
b11100 h
b0 g
$end
#0
$dumpvars
b100000 ^#
b0 ]#
b0 \#
b0 [#
b0 Z#
b0 Y#
b0 X#
b0 W#
b0 V#
b0 U#
b0 T#
b0 S#
b0 R#
1Q#
b100 P#
b100 O#
b0 N#
b100 M#
b0 L#
b100 K#
b100 J#
b0 I#
b0 H#
b0 G#
b0 F#
b0 E#
b0 D#
b0 C#
b0 B#
b0 A#
b0 @#
b0 ?#
b0 7#
b0 6#
b0 5#
b0 4#
b0 3#
b0 2#
b0 1#
b0 0#
b100 /#
b100000000 .#
b0 -#
b11110110000000010000000100010011 ,#
b0 +#
b0 *#
b11110110000000010000000100010011 )#
b100 (#
1'#
b0 &#
b0 %#
b0 $#
b0 ##
b0 "#
b0 !#
b0 ~"
b0 }"
b0 |"
b11111 {"
b0 z"
b0 y"
b0 x"
b0 w"
1v"
b0 u"
b0 t"
b0 s"
b0 r"
b0 q"
b11111 p"
b0 o"
b0 n"
b0 m"
b0 l"
b0 k"
b0 j"
0i"
b0 h"
b0 g"
0f"
b0 e"
b0 d"
b0 c"
b0 b"
b0 a"
b0 `"
b0 _"
b0 ^"
b0 ]"
b0 \"
b0 ["
b0 Z"
b0 Y"
b0 X"
b0 W"
b0 V"
b0 U"
b0 T"
b0 S"
b0 R"
b0 Q"
b100000000 P"
b0 O"
b0 N"
b0 M"
b0 L"
b100 K"
b11111 J"
b0 +"
0*"
0)"
b0 ("
b0 '"
b0 &"
b0 %"
b0 $"
b0 #"
b0 ""
b0 !"
b0 ~
b0 }
b0 |
b0 {
b11111111111111111111111111111111 z
b0 f
b11111 e
b0 d
b0 c
b11111 b
b11111 a
b0 `
b0 _
0^
0]
b0 \
0[
0Z
0Y
0X
b0 W
b0 V
b0 U
b0 T
b100 S
b0 R
b11110110000000010000000100010011 Q
0P
0O
0N
0M
0L
b0 K
b0 J
b100 I
b0 H
b0 G
b100 F
b0 E
b0 D
b0 C
b0 B
b0 A
b0 @
b0 ?
b0 >
b0 =
b0 <
b0 ;
b0 :
b0 9
08
07
06
05
b0 4
b0 3
b0 2
b0 1
b0 0
b0 /
b0 .
b0 -
b0 ,
b0 +
b0 *
b0 )
0(
0'
1&
b0 %
0$
b0 #
1"
0!
$end
#5000
1!
#10000
0!
#15000
1!
#20000
0!
0"
#25000
b11111111111111111111111101100000 U
b11111111111111111111111101100000 z"
b11111111111111111111111101100000 ?#
b11110110000000010000000000000000 1#
b11111111111000100000111011000000 3#
b11111111111111111110111011000100 7#
b11111111111111111111111101100000 5#
b111101100000 4#
b11111111111111111111111101100010 2#
b0 b
b0 J"
b0 p"
1^
18
b1111011000000001000000010 0#
1)"
1*"
b10011 +"
b10 >
b10 r"
b10 .
b10 g"
b10 t"
b10 S#
b1000 I
b1000 O#
b1000 P#
b1000000100010010111000100011 Q
b1000000100010010111000100011 )#
b1000000100010010111000100011 ,#
b11110110000000010000000100010011 R
b11110110000000010000000100010011 *#
b100 H
b100 y"
b100 +#
b1000 F
b1000 (#
b1000 K#
b1000 M#
b100 #
b100 q"
b100 J
b100 -#
b100 L#
b100 R#
1!
#30000
0!
#35000
0&
b11111111111111111111111101100000 `
b11111111111111111111111101100000 c
b11111111111111111111111101100000 Q"
b11111111111111111111111101100000 }
b0 z
b10011100 U
b10011100 z"
b10011100 ?#
b11111111111111111111111101100000 )
b11111111111111111111111101100000 d
b11111111111111111111111101100000 ""
b1000000100010010000000000000 1#
b100101000100000000 3#
b100111000 7#
b10000001 5#
b10000001 4#
b10011100 2#
b1 6#
b11 S
b11 K"
b11 /#
1N
1^
b0 b
b0 J"
b0 p"
08
b1100 I
b1100 O#
b1100 P#
b1000100000010010110000100011 Q
b1000100000010010110000100011 )#
b1000100000010010110000100011 ,#
b100000010001001011100 0#
0)"
0*"
b10 ("
b100011 +"
b11100 >
b11100 r"
b1 ,
b1 h"
b1 u"
b1 T#
b1100 F
b1100 (#
b1100 K#
b1100 M#
b1000 #
b1000 q"
b1000 J
b1000 -#
b1000 L#
b1000 R#
b1000000100010010111000100011 R
b1000000100010010111000100011 *#
b1000 H
b1000 y"
b1000 +#
b10 =
b10 T"
b10 m"
b10 ##
b10 -
b10 k"
b10 %#
b11111111111111111111111101100000 T
b11111111111111111111111101100000 $"
b11111111111111111111111101100000 &"
b11111111111111111111111101100000 |"
b100 G
b100 U"
b100 ~"
b11111111111111111111111101100100 C
b11111111111111111111111101100100 %"
b11111111111111111111111101100100 N#
b100 K
b100 #"
b100 '"
b100 }"
b1 \
b1 !"
1]
b0 a
b0 e
b0 {"
17
1!
#40000
0!
#45000
b11111111111111111111111101100000 *
b11111111111111111111111101100000 f
b11111111111111111111111101100000 \"
b10 W
b10 ]"
b10 o"
b11111111111111111111111111111100 `
b11111111111111111111111111111100 c
b11111111111111111111111111111100 Q"
b11111111111111111111111111111100 }
b10011000 U
b10011000 z"
b10011000 ?#
b10011100 )
b10011100 d
b10011100 ""
b1000100000010010000000000000 1#
b100100000100010000 3#
b100110000 7#
b10001000 5#
b10001000 4#
b10011000 2#
b1000 6#
bx :
bx M"
bx C#
b100010000001001011000 0#
b11000 >
b11000 r"
b1000 ,
b1000 h"
b1000 u"
b1000 T#
b10000 I
b10000 O#
b10000 P#
b1000100100010010101000100011 Q
b1000100100010010101000100011 )#
b1000100100010010101000100011 ,#
b100 E
b100 W"
b100 A#
b10 <
b10 X"
b10 e"
b10 B#
b11111111111111111111111101100000 4
b11111111111111111111111101100000 O"
b11111111111111111111111101100000 V"
b11111111111111111111111101100000 ["
b11111111111111111111111101100000 `"
b11111111111111111111111101100000 @#
16
b11100 =
b11100 T"
b11100 m"
b11100 ##
b1 +
b1 j"
b1 &#
b10011100 T
b10011100 $"
b10011100 &"
b10011100 |"
b1000 G
b1000 U"
b1000 ~"
b10100100 C
b10100100 %"
b10100100 N#
b1000 K
b1000 #"
b1000 '"
b1000 }"
1M
07
b1000100000010010110000100011 R
b1000100000010010110000100011 *#
b1100 H
b1100 y"
b1100 +#
b10000 F
b10000 (#
b10000 K#
b10000 M#
b1100 #
b1100 q"
b1100 J
b1100 -#
b1100 L#
b1100 R#
1!
#50000
0!
#55000
b10010100 U
b10010100 z"
b10010100 ?#
b1 W
b1 ]"
b1 o"
b1000100100010010000000000000 1#
b100101000100010000 3#
b100101000 7#
b10001001 5#
b10001001 4#
b10010100 2#
b1001 6#
b10011000 )
b10011000 d
b10011000 ""
b11111111111111111111111111111000 `
b11111111111111111111111111111000 c
b11111111111111111111111111111000 Q"
b11111111111111111111111111111000 }
b11111111111111111111111101100000 /
b11111111111111111111111101100000 ^"
b11111111111111111111111101100000 c"
b11111111111111111111111101100000 V#
b11111111111111111111111101100000 ]#
b10100 I
b10100 O#
b10100 P#
b1001001000010010100000100011 Q
b1001001000010010100000100011 )#
b1001001000010010100000100011 ,#
b100010010001001010100 0#
b10100 >
b10100 r"
b1001 ,
b1001 h"
b1001 u"
b1001 T#
b11111111111111111111111101100000 *
b11111111111111111111111101100000 f
b11111111111111111111111101100000 \"
b10100 F
b10100 (#
b10100 K#
b10100 M#
b10000 #
b10000 q"
b10000 J
b10000 -#
b10000 L#
b10000 R#
b1000100100010010101000100011 R
b1000100100010010101000100011 *#
b10000 H
b10000 y"
b10000 +#
b11000 =
b11000 T"
b11000 m"
b11000 ##
b1000 +
b1000 j"
b1000 &#
b10011000 T
b10011000 $"
b10011000 &"
b10011000 |"
b1100 G
b1100 U"
b1100 ~"
b10100100 C
b10100100 %"
b10100100 N#
b1100 K
b1100 #"
b1100 '"
b1100 }"
b1000 E
b1000 W"
b1000 A#
b11100 <
b11100 X"
b11100 e"
b11100 B#
b11111111111111111111111111111100 4
b11111111111111111111111111111100 O"
b11111111111111111111111111111100 V"
b11111111111111111111111111111100 ["
b11111111111111111111111111111100 `"
b11111111111111111111111111111100 @#
1L
06
b100 D
b100 F#
b100 [#
b10 ;
b10 l"
b10 G#
b10 U#
bx 9
bx H#
bx Z#
b11111111111111111111111101100000 _
b11111111111111111111111101100000 E#
b11111111111111111111111101100000 Y#
15
1!
#60000
0!
#65000
b0 *
b0 f
b0 \"
b0 W
b0 ]"
b0 o"
b10010100 `
b10010100 c
b10010100 Q"
b10010100 }
b10010000 U
b10010000 z"
b10010000 ?#
b11111111111111111111111111111100 /
b11111111111111111111111111111100 ^"
b11111111111111111111111111111100 c"
b11111111111111111111111111111100 V#
b11111111111111111111111111111100 ]#
b10010100 )
b10010100 d
b10010100 ""
b1001001000010010000000000000 1#
b100100000100100100 3#
b100100000 7#
b10010010 5#
b10010010 4#
b10010000 2#
b10010 6#
b11111111111111111111111101100000 B
b11111111111111111111111101100000 x"
b11111111111111111111111101100000 X#
b100100100001001010000 0#
b10000 >
b10000 r"
b10010 ,
b10010 h"
b10010 u"
b10010 T#
b11000 I
b11000 O#
b11000 P#
b1001001100010010011000100011 Q
b1001001100010010011000100011 )#
b1001001100010010011000100011 ,#
b1000 D
b1000 F#
b1000 [#
b11100 ;
b11100 l"
b11100 G#
b11100 U#
b11111111111111111111111111111100 _
b11111111111111111111111111111100 E#
b11111111111111111111111111111100 Y#
05
b1100 E
b1100 W"
b1100 A#
b11000 <
b11000 X"
b11000 e"
b11000 B#
b11111111111111111111111111111000 4
b11111111111111111111111111111000 O"
b11111111111111111111111111111000 V"
b11111111111111111111111111111000 ["
b11111111111111111111111111111000 `"
b11111111111111111111111111111000 @#
b10100 =
b10100 T"
b10100 m"
b10100 ##
b1001 +
b1001 j"
b1001 &#
b10010100 T
b10010100 $"
b10010100 &"
b10010100 |"
b10000 G
b10000 U"
b10000 ~"
b10100100 C
b10100100 %"
b10100100 N#
b10000 K
b10000 #"
b10000 '"
b10000 }"
b1001001000010010100000100011 R
b1001001000010010100000100011 *#
b10100 H
b10100 y"
b10100 +#
b11000 F
b11000 (#
b11000 K#
b11000 M#
b10100 #
b10100 q"
b10100 J
b10100 -#
b10100 L#
b10100 R#
1!
#70000
0!
#75000
b10001100 U
b10001100 z"
b10001100 ?#
b11111111111111111111111111110000 `
b11111111111111111111111111110000 c
b11111111111111111111111111110000 Q"
b11111111111111111111111111110000 }
b1001001100010010000000000000 1#
b100101000100100100 3#
b100011000 7#
b10010011 5#
b10010011 4#
b10001100 2#
b10011 6#
b10010000 )
b10010000 d
b10010000 ""
b11111111111111111111111101100000 *
b11111111111111111111111101100000 f
b11111111111111111111111101100000 \"
b11111111111111111111111111111000 /
b11111111111111111111111111111000 ^"
b11111111111111111111111111111000 c"
b11111111111111111111111111111000 V#
b11111111111111111111111111111000 ]#
b11100 I
b11100 O#
b11100 P#
b1001010000010010010000100011 Q
b1001010000010010010000100011 )#
b1001010000010010010000100011 ,#
b100100110001001001100 0#
b1100 >
b1100 r"
b10011 ,
b10011 h"
b10011 u"
b10011 T#
b0 :
b0 M"
b0 C#
b11100 F
b11100 (#
b11100 K#
b11100 M#
b11000 #
b11000 q"
b11000 J
b11000 -#
b11000 L#
b11000 R#
b1001001100010010011000100011 R
b1001001100010010011000100011 *#
b11000 H
b11000 y"
b11000 +#
b10000 =
b10000 T"
b10000 m"
b10000 ##
b10010 +
b10010 j"
b10010 &#
b10010000 T
b10010000 $"
b10010000 &"
b10010000 |"
b10100 G
b10100 U"
b10100 ~"
b10100100 C
b10100100 %"
b10100100 N#
b10100 K
b10100 #"
b10100 '"
b10100 }"
b11111111111111111111111101100000 A
b11111111111111111111111101100000 _"
b11111111111111111111111101100000 !#
b10000 E
b10000 W"
b10000 A#
b10100 <
b10100 X"
b10100 e"
b10100 B#
b10010100 4
b10010100 O"
b10010100 V"
b10010100 ["
b10010100 `"
b10010100 @#
b1100 D
b1100 F#
b1100 [#
b11000 ;
b11000 l"
b11000 G#
b11000 U#
b11111111111111111111111111111000 _
b11111111111111111111111111111000 E#
b11111111111111111111111111111000 Y#
1!
#80000
0!
#85000
b11111111111111111111111111101100 `
b11111111111111111111111111101100 c
b11111111111111111111111111101100 Q"
b11111111111111111111111111101100 }
b10001000 U
b10001000 z"
b10001000 ?#
b10010100 /
b10010100 ^"
b10010100 c"
b10010100 V#
b10010100 ]#
b10001100 )
b10001100 d
b10001100 ""
b1001010000010010000000000000 1#
b100100000100101000 3#
b100010000 7#
b10010100 5#
b10010100 4#
b10001000 2#
b10100 6#
bx :
bx M"
bx C#
b100101000001001001000 0#
b1000 >
b1000 r"
b10100 ,
b10100 h"
b10100 u"
b10100 T#
b100000 I
b100000 O#
b100000 P#
b1001010100010010001000100011 Q
b1001010100010010001000100011 )#
b1001010100010010001000100011 ,#
b10000 D
b10000 F#
b10000 [#
b10100 ;
b10100 l"
b10100 G#
b10100 U#
b0 9
b0 H#
b0 Z#
b10010100 _
b10010100 E#
b10010100 Y#
b10100 E
b10100 W"
b10100 A#
b10000 <
b10000 X"
b10000 e"
b10000 B#
b11111111111111111111111111110000 4
b11111111111111111111111111110000 O"
b11111111111111111111111111110000 V"
b11111111111111111111111111110000 ["
b11111111111111111111111111110000 `"
b11111111111111111111111111110000 @#
b1100 =
b1100 T"
b1100 m"
b1100 ##
b10011 +
b10011 j"
b10011 &#
b10001100 T
b10001100 $"
b10001100 &"
b10001100 |"
b11000 G
b11000 U"
b11000 ~"
b10100100 C
b10100100 %"
b10100100 N#
b11000 K
b11000 #"
b11000 '"
b11000 }"
b1001010000010010010000100011 R
b1001010000010010010000100011 *#
b11100 H
b11100 y"
b11100 +#
b100000 F
b100000 (#
b100000 K#
b100000 M#
b11100 #
b11100 q"
b11100 J
b11100 -#
b11100 L#
b11100 R#
1!
#90000
0!
#95000
b10000100 U
b10000100 z"
b10000100 ?#
b11111111111111111111111111101000 `
b11111111111111111111111111101000 c
b11111111111111111111111111101000 Q"
b11111111111111111111111111101000 }
b1001010100010010000000000000 1#
b100101000100101000 3#
b100001000 7#
b10010101 5#
b10010101 4#
b10000100 2#
b10101 6#
b10001000 )
b10001000 d
b10001000 ""
b11111111111111111111111111110000 /
b11111111111111111111111111110000 ^"
b11111111111111111111111111110000 c"
b11111111111111111111111111110000 V#
b11111111111111111111111111110000 ]#
b100100 I
b100100 O#
b100100 P#
b1001011000010010000000100011 Q
b1001011000010010000000100011 )#
b1001011000010010000000100011 ,#
b100101010001001000100 0#
b100 >
b100 r"
b10101 ,
b10101 h"
b10101 u"
b10101 T#
b100100 F
b100100 (#
b100100 K#
b100100 M#
b100000 #
b100000 q"
b100000 J
b100000 -#
b100000 L#
b100000 R#
b1001010100010010001000100011 R
b1001010100010010001000100011 *#
b100000 H
b100000 y"
b100000 +#
b1000 =
b1000 T"
b1000 m"
b1000 ##
b10100 +
b10100 j"
b10100 &#
b10001000 T
b10001000 $"
b10001000 &"
b10001000 |"
b11100 G
b11100 U"
b11100 ~"
b10100100 C
b10100100 %"
b10100100 N#
b11100 K
b11100 #"
b11100 '"
b11100 }"
b11000 E
b11000 W"
b11000 A#
b1100 <
b1100 X"
b1100 e"
b1100 B#
b11111111111111111111111111101100 4
b11111111111111111111111111101100 O"
b11111111111111111111111111101100 V"
b11111111111111111111111111101100 ["
b11111111111111111111111111101100 `"
b11111111111111111111111111101100 @#
b10100 D
b10100 F#
b10100 [#
b10000 ;
b10000 l"
b10000 G#
b10000 U#
bx 9
bx H#
bx Z#
b11111111111111111111111111110000 _
b11111111111111111111111111110000 E#
b11111111111111111111111111110000 Y#
1!
#100000
0!
